Econometric Workflow
…
Violation of this assumption causes a biased estimate.

We prove coefficient is unbiased (4th assummption) by showing that for every combination of variable of interest and control (zero conditional mean assumption), mean value is around 0 by creating group_by table and see if there is any systematic variation. Also, we use fitted value versus residual plot and see if residuals are around 0 horizontal line. If there is a pattern, then there is an omitted variable bias which is creating systematic variation in response not accounted for by control or variable.

lmod <- lm(lwage~educ+KWW, data=df)
df %>%
  drop_na %>%
  mutate(residuals = residuals(lmod)) %>%
  group_by(educ, KWW) %>%
  summarise(conditional.mean = mean(residuals))

## `summarise()` regrouping output by 'educ' (override with `.groups` argument)

## # A tibble: 405 x 3
## # Groups:   educ [18]
##     educ   KWW conditional.mean
##    <dbl> <dbl>            <dbl>
##  1     1     8           0.692 
##  2     2    12          -0.0975
##  3     2    31          -0.132 
##  4     3     6          -0.0956
##  5     3     8          -0.318 
##  6     4     8           0.197 
##  7     5    10          -0.207 
##  8     5    12           0.186 
##  9     5    14           0.168 
## 10     5    18          -0.143 
## # ... with 395 more rows
…
